(kicad_sch (version 20211123) (generator eeschema)

  (uuid 865276e8-3325-4c47-b52b-1165a93054cf)

  (paper "A2" portrait)

  (lib_symbols
    (symbol "solar-energy:2-Way Energy Meter" (in_bom yes) (on_board yes)
      (property "Reference" "G" (id 0) (at 0 7.62 0)
        (effects (font (size 1.27 1.27)))
      )
      (property "Value" "2-Way Energy Meter" (id 1) (at 0.635 -12.7 0)
        (effects (font (size 1.27 1.27)))
      )
      (property "Footprint" "" (id 2) (at -3.81 2.54 0)
        (effects (font (size 1.27 1.27)) hide)
      )
      (property "Datasheet" "" (id 3) (at -3.81 2.54 0)
        (effects (font (size 1.27 1.27)) hide)
      )
      (symbol "2-Way Energy Meter_0_1"
        (polyline
          (pts
            (xy 6.35 6.35)
            (xy 6.35 -11.43)
            (xy -6.35 -11.43)
            (xy -6.35 6.35)
            (xy 6.35 6.35)
          )
          (stroke (width 0) (type default) (color 0 0 0 0))
          (fill (type background))
        )
      )
      (symbol "2-Way Energy Meter_1_1"
        (pin passive line (at -8.89 3.81 0) (length 2.54)
          (name "L1" (effects (font (size 1.27 1.27))))
          (number "1" (effects (font (size 1.27 1.27))))
        )
        (pin passive line (at -8.89 1.27 0) (length 2.54)
          (name "L2" (effects (font (size 1.27 1.27))))
          (number "2" (effects (font (size 1.27 1.27))))
        )
        (pin passive line (at -8.89 -1.27 0) (length 2.54)
          (name "L3" (effects (font (size 1.27 1.27))))
          (number "3" (effects (font (size 1.27 1.27))))
        )
        (pin passive line (at -8.89 -3.81 0) (length 2.54)
          (name "N" (effects (font (size 1.27 1.27))))
          (number "4" (effects (font (size 1.27 1.27))))
        )
        (pin passive line (at 8.89 -8.89 180) (length 2.54)
          (name "CTRL" (effects (font (size 1.27 1.27))))
          (number "5" (effects (font (size 1.27 1.27))))
        )
        (pin passive line (at 8.89 -3.81 180) (length 2.54)
          (name "N" (effects (font (size 1.27 1.27))))
          (number "6" (effects (font (size 1.27 1.27))))
        )
        (pin passive line (at 8.89 -1.27 180) (length 2.54)
          (name "L3" (effects (font (size 1.27 1.27))))
          (number "7" (effects (font (size 1.27 1.27))))
        )
        (pin passive line (at 8.89 1.27 180) (length 2.54)
          (name "L2" (effects (font (size 1.27 1.27))))
          (number "8" (effects (font (size 1.27 1.27))))
        )
        (pin passive line (at 8.89 3.81 180) (length 2.54)
          (name "L1" (effects (font (size 1.27 1.27))))
          (number "9" (effects (font (size 1.27 1.27))))
        )
      )
    )
    (symbol "solar-energy:3PH DC{slash}AC Converter" (in_bom yes) (on_board yes)
      (property "Reference" "G" (id 0) (at 0 7.62 0)
        (effects (font (size 1.27 1.27)))
      )
      (property "Value" "3PH DC{slash}AC Converter" (id 1) (at 0 -7.62 0)
        (effects (font (size 1.27 1.27)))
      )
      (property "Footprint" "" (id 2) (at -3.81 2.54 0)
        (effects (font (size 1.27 1.27)) hide)
      )
      (property "Datasheet" "" (id 3) (at -3.81 2.54 0)
        (effects (font (size 1.27 1.27)) hide)
      )
      (property "ki_description" "Bidirectional DC/DC Converter" (id 4) (at 0 0 0)
        (effects (font (size 1.27 1.27)) hide)
      )
      (symbol "3PH DC{slash}AC Converter_0_1"
        (polyline
          (pts
            (xy 6.35 6.35)
            (xy 6.35 -6.35)
            (xy -6.35 -6.35)
            (xy -6.35 6.35)
            (xy 6.35 6.35)
          )
          (stroke (width 0) (type default) (color 0 0 0 0))
          (fill (type background))
        )
      )
      (symbol "3PH DC{slash}AC Converter_1_1"
        (pin passive line (at -8.89 3.81 0) (length 2.54)
          (name "L1" (effects (font (size 1.27 1.27))))
          (number "1" (effects (font (size 1.27 1.27))))
        )
        (pin passive line (at -8.89 1.27 0) (length 2.54)
          (name "L2" (effects (font (size 1.27 1.27))))
          (number "2" (effects (font (size 1.27 1.27))))
        )
        (pin passive line (at -8.89 -1.27 0) (length 2.54)
          (name "L3" (effects (font (size 1.27 1.27))))
          (number "3" (effects (font (size 1.27 1.27))))
        )
        (pin passive line (at -8.89 -3.81 0) (length 2.54)
          (name "N" (effects (font (size 1.27 1.27))))
          (number "4" (effects (font (size 1.27 1.27))))
        )
        (pin passive line (at 8.89 -3.81 180) (length 2.54)
          (name "CTRL" (effects (font (size 1.27 1.27))))
          (number "5" (effects (font (size 1.27 1.27))))
        )
        (pin passive line (at 8.89 1.27 180) (length 2.54)
          (name "IM" (effects (font (size 1.27 1.27))))
          (number "6" (effects (font (size 1.27 1.27))))
        )
        (pin passive line (at 8.89 3.81 180) (length 2.54)
          (name "IP" (effects (font (size 1.27 1.27))))
          (number "7" (effects (font (size 1.27 1.27))))
        )
      )
    )
    (symbol "solar-energy:Battery" (in_bom yes) (on_board yes)
      (property "Reference" "B" (id 0) (at 0 6.35 0)
        (effects (font (size 1.27 1.27)))
      )
      (property "Value" "Battery" (id 1) (at 0 4.445 0)
        (effects (font (size 1.27 1.27)))
      )
      (property "Footprint" "" (id 2) (at -7.62 0 0)
        (effects (font (size 1.27 1.27)) hide)
      )
      (property "Datasheet" "" (id 3) (at -7.62 0 0)
        (effects (font (size 1.27 1.27)) hide)
      )
      (property "ki_description" "Storage Battery" (id 4) (at 0 0 0)
        (effects (font (size 1.27 1.27)) hide)
      )
      (symbol "Battery_0_1"
        (rectangle (start -11.43 -2.54) (end -11.43 -2.54)
          (stroke (width 0) (type default) (color 0 0 0 0))
          (fill (type none))
        )
        (polyline
          (pts
            (xy 5.08 3.175)
            (xy 5.08 -3.175)
            (xy -5.08 -3.175)
            (xy -5.08 3.175)
            (xy 5.08 3.175)
          )
          (stroke (width 0) (type default) (color 0 0 0 0))
          (fill (type background))
        )
      )
      (symbol "Battery_1_1"
        (pin passive line (at 7.62 1.27 180) (length 2.54)
          (name "P" (effects (font (size 1.27 1.27))))
          (number "1" (effects (font (size 1.27 1.27))))
        )
        (pin passive line (at 7.62 -1.27 180) (length 2.54)
          (name "M" (effects (font (size 1.27 1.27))))
          (number "2" (effects (font (size 1.27 1.27))))
        )
      )
    )
    (symbol "solar-energy:BiDi DCDC Converter" (in_bom yes) (on_board yes)
      (property "Reference" "G" (id 0) (at 0 6.35 0)
        (effects (font (size 1.27 1.27)))
      )
      (property "Value" "BiDi DCDC Converter" (id 1) (at 0 4.445 0)
        (effects (font (size 1.27 1.27)))
      )
      (property "Footprint" "" (id 2) (at -3.81 0 0)
        (effects (font (size 1.27 1.27)) hide)
      )
      (property "Datasheet" "" (id 3) (at -3.81 0 0)
        (effects (font (size 1.27 1.27)) hide)
      )
      (property "ki_description" "Bidirectional DC/DC Converter" (id 4) (at 0 0 0)
        (effects (font (size 1.27 1.27)) hide)
      )
      (symbol "BiDi DCDC Converter_0_1"
        (polyline
          (pts
            (xy 6.35 3.175)
            (xy 6.35 -5.715)
            (xy -6.35 -5.715)
            (xy -6.35 3.175)
            (xy 6.35 3.175)
          )
          (stroke (width 0) (type default) (color 0 0 0 0))
          (fill (type background))
        )
      )
      (symbol "BiDi DCDC Converter_1_1"
        (pin passive line (at -8.89 1.27 0) (length 2.54)
          (name "BP" (effects (font (size 1.27 1.27))))
          (number "1" (effects (font (size 1.27 1.27))))
        )
        (pin passive line (at -8.89 -1.27 0) (length 2.54)
          (name "BM" (effects (font (size 1.27 1.27))))
          (number "2" (effects (font (size 1.27 1.27))))
        )
        (pin passive line (at 8.89 -3.81 180) (length 2.54)
          (name "CTRL" (effects (font (size 1.27 1.27))))
          (number "3" (effects (font (size 1.27 1.27))))
        )
        (pin passive line (at 8.89 -1.27 180) (length 2.54)
          (name "IOM" (effects (font (size 1.27 1.27))))
          (number "4" (effects (font (size 1.27 1.27))))
        )
        (pin passive line (at 8.89 1.27 180) (length 2.54)
          (name "IOP" (effects (font (size 1.27 1.27))))
          (number "5" (effects (font (size 1.27 1.27))))
        )
      )
    )
    (symbol "solar-energy:Compressor" (in_bom yes) (on_board yes)
      (property "Reference" "G" (id 0) (at 0 8.89 0)
        (effects (font (size 1.27 1.27)))
      )
      (property "Value" "Compressor" (id 1) (at 0 6.985 0)
        (effects (font (size 1.27 1.27)))
      )
      (property "Footprint" "" (id 2) (at 0 0 0)
        (effects (font (size 1.27 1.27)) hide)
      )
      (property "Datasheet" "" (id 3) (at 0 0 0)
        (effects (font (size 1.27 1.27)) hide)
      )
      (symbol "Compressor_0_1"
        (rectangle (start -6.35 5.715) (end 6.35 -5.715)
          (stroke (width 0.2032) (type default) (color 0 0 0 0))
          (fill (type background))
        )
        (rectangle (start 8.89 -1.27) (end 8.89 -1.27)
          (stroke (width 0.2032) (type default) (color 0 0 0 0))
          (fill (type none))
        )
        (rectangle (start 8.89 -1.27) (end 8.89 -1.27)
          (stroke (width 0.2032) (type default) (color 0 0 0 0))
          (fill (type none))
        )
      )
      (symbol "Compressor_1_1"
        (pin passive line (at 8.89 3.81 180) (length 2.54)
          (name "L1" (effects (font (size 1.27 1.27))))
          (number "1" (effects (font (size 1.27 1.27))))
        )
        (pin passive line (at 8.89 1.27 180) (length 2.54)
          (name "L2" (effects (font (size 1.27 1.27))))
          (number "2" (effects (font (size 1.27 1.27))))
        )
        (pin passive line (at 8.89 -1.27 180) (length 2.54)
          (name "L3" (effects (font (size 1.27 1.27))))
          (number "3" (effects (font (size 1.27 1.27))))
        )
        (pin passive line (at 8.89 -3.81 180) (length 2.54)
          (name "N" (effects (font (size 1.27 1.27))))
          (number "4" (effects (font (size 1.27 1.27))))
        )
        (pin passive line (at -8.89 -3.81 0) (length 2.54)
          (name "Data" (effects (font (size 1.27 1.27))))
          (number "5" (effects (font (size 1.27 1.27))))
        )
      )
    )
    (symbol "solar-energy:Controller" (in_bom yes) (on_board yes)
      (property "Reference" "G" (id 0) (at 0 7.62 0)
        (effects (font (size 1.27 1.27)))
      )
      (property "Value" "Controller" (id 1) (at 0 -7.62 0)
        (effects (font (size 1.27 1.27)))
      )
      (property "Footprint" "" (id 2) (at -3.81 2.54 0)
        (effects (font (size 1.27 1.27)) hide)
      )
      (property "Datasheet" "" (id 3) (at -3.81 2.54 0)
        (effects (font (size 1.27 1.27)) hide)
      )
      (symbol "Controller_0_1"
        (polyline
          (pts
            (xy 6.35 6.35)
            (xy 6.35 -6.35)
            (xy -6.35 -6.35)
            (xy -6.35 6.35)
            (xy 6.35 6.35)
          )
          (stroke (width 0) (type default) (color 0 0 0 0))
          (fill (type background))
        )
      )
      (symbol "Controller_1_1"
        (pin passive line (at -8.89 0 0) (length 2.54)
          (name "Data" (effects (font (size 1.27 1.27))))
          (number "1" (effects (font (size 1.27 1.27))))
        )
      )
    )
    (symbol "solar-energy:DC{slash}DC Converter" (in_bom yes) (on_board yes)
      (property "Reference" "G" (id 0) (at 0 6.35 0)
        (effects (font (size 1.27 1.27)))
      )
      (property "Value" "DC{slash}DC Converter" (id 1) (at 0 4.445 0)
        (effects (font (size 1.27 1.27)))
      )
      (property "Footprint" "" (id 2) (at -3.81 0 0)
        (effects (font (size 1.27 1.27)) hide)
      )
      (property "Datasheet" "" (id 3) (at -3.81 0 0)
        (effects (font (size 1.27 1.27)) hide)
      )
      (property "ki_description" "Bidirectional DC/DC Converter" (id 4) (at 0 0 0)
        (effects (font (size 1.27 1.27)) hide)
      )
      (symbol "DC{slash}DC Converter_0_1"
        (polyline
          (pts
            (xy 6.35 3.175)
            (xy 6.35 -5.715)
            (xy -6.35 -5.715)
            (xy -6.35 3.175)
            (xy 6.35 3.175)
          )
          (stroke (width 0) (type default) (color 0 0 0 0))
          (fill (type background))
        )
      )
      (symbol "DC{slash}DC Converter_1_1"
        (pin passive line (at -8.89 1.27 0) (length 2.54)
          (name "IP" (effects (font (size 1.27 1.27))))
          (number "1" (effects (font (size 1.27 1.27))))
        )
        (pin passive line (at -8.89 -1.27 0) (length 2.54)
          (name "IM" (effects (font (size 1.27 1.27))))
          (number "2" (effects (font (size 1.27 1.27))))
        )
        (pin passive line (at -8.89 -3.81 0) (length 2.54)
          (name "CTRL" (effects (font (size 1.27 1.27))))
          (number "3" (effects (font (size 1.27 1.27))))
        )
        (pin passive line (at 8.89 -1.27 180) (length 2.54)
          (name "OM" (effects (font (size 1.27 1.27))))
          (number "4" (effects (font (size 1.27 1.27))))
        )
        (pin passive line (at 8.89 1.27 180) (length 2.54)
          (name "OP" (effects (font (size 1.27 1.27))))
          (number "5" (effects (font (size 1.27 1.27))))
        )
      )
    )
    (symbol "solar-energy:DC{slash}DC Converter 2" (in_bom yes) (on_board yes)
      (property "Reference" "G" (id 0) (at 0 6.35 0)
        (effects (font (size 1.27 1.27)))
      )
      (property "Value" "DC{slash}DC Converter 2" (id 1) (at 0 4.445 0)
        (effects (font (size 1.27 1.27)))
      )
      (property "Footprint" "" (id 2) (at -3.81 0 0)
        (effects (font (size 1.27 1.27)) hide)
      )
      (property "Datasheet" "" (id 3) (at -3.81 0 0)
        (effects (font (size 1.27 1.27)) hide)
      )
      (property "ki_description" "Bidirectional DC/DC Converter" (id 4) (at 0 0 0)
        (effects (font (size 1.27 1.27)) hide)
      )
      (symbol "DC{slash}DC Converter 2_0_1"
        (polyline
          (pts
            (xy 6.35 3.175)
            (xy 6.35 -5.715)
            (xy -6.35 -5.715)
            (xy -6.35 3.175)
            (xy 6.35 3.175)
          )
          (stroke (width 0) (type default) (color 0 0 0 0))
          (fill (type background))
        )
      )
      (symbol "DC{slash}DC Converter 2_1_1"
        (pin passive line (at -8.89 1.27 0) (length 2.54)
          (name "IP" (effects (font (size 1.27 1.27))))
          (number "1" (effects (font (size 1.27 1.27))))
        )
        (pin passive line (at -8.89 -1.27 0) (length 2.54)
          (name "IM" (effects (font (size 1.27 1.27))))
          (number "2" (effects (font (size 1.27 1.27))))
        )
        (pin passive line (at 8.89 -3.81 180) (length 2.54)
          (name "DATA" (effects (font (size 1.27 1.27))))
          (number "3" (effects (font (size 1.27 1.27))))
        )
        (pin passive line (at 8.89 -1.27 180) (length 2.54)
          (name "OM" (effects (font (size 1.27 1.27))))
          (number "4" (effects (font (size 1.27 1.27))))
        )
        (pin passive line (at 8.89 1.27 180) (length 2.54)
          (name "OP" (effects (font (size 1.27 1.27))))
          (number "5" (effects (font (size 1.27 1.27))))
        )
      )
    )
    (symbol "solar-energy:Electrolyzer" (in_bom yes) (on_board yes)
      (property "Reference" "G" (id 0) (at -6.985 6.985 0)
        (effects (font (size 1.27 1.27)) (justify left))
      )
      (property "Value" "Electrolyzer" (id 1) (at -6.985 5.08 0)
        (effects (font (size 1.27 1.27)) (justify left))
      )
      (property "Footprint" "" (id 2) (at 0 0 0)
        (effects (font (size 1.27 1.27)) hide)
      )
      (property "Datasheet" "" (id 3) (at 0 0 0)
        (effects (font (size 1.27 1.27)) hide)
      )
      (symbol "Electrolyzer_0_1"
        (rectangle (start -6.985 3.81) (end 5.08 -3.81)
          (stroke (width 0.2032) (type default) (color 0 0 0 0))
          (fill (type background))
        )
      )
      (symbol "Electrolyzer_1_1"
        (pin passive line (at 7.62 1.27 180) (length 2.54)
          (name "IP" (effects (font (size 1.27 1.27))))
          (number "1" (effects (font (size 1.27 1.27))))
        )
        (pin passive line (at 7.62 -1.27 180) (length 2.54)
          (name "IM" (effects (font (size 1.27 1.27))))
          (number "2" (effects (font (size 1.27 1.27))))
        )
      )
    )
    (symbol "solar-energy:Fuel Cell" (in_bom yes) (on_board yes)
      (property "Reference" "G" (id 0) (at 0 6.35 0)
        (effects (font (size 1.27 1.27)))
      )
      (property "Value" "Fuel Cell" (id 1) (at 0 4.445 0)
        (effects (font (size 1.27 1.27)))
      )
      (property "Footprint" "" (id 2) (at 0 0 0)
        (effects (font (size 1.27 1.27)) hide)
      )
      (property "Datasheet" "" (id 3) (at 0 0 0)
        (effects (font (size 1.27 1.27)) hide)
      )
      (symbol "Fuel Cell_0_1"
        (polyline
          (pts
            (xy 5.08 3.175)
            (xy 5.08 -5.715)
            (xy -5.08 -5.715)
            (xy -5.08 3.175)
            (xy 5.08 3.175)
          )
          (stroke (width 0) (type default) (color 0 0 0 0))
          (fill (type background))
        )
      )
      (symbol "Fuel Cell_1_1"
        (pin passive line (at 7.62 1.27 180) (length 2.54)
          (name "P" (effects (font (size 1.27 1.27))))
          (number "1" (effects (font (size 1.27 1.27))))
        )
        (pin passive line (at 7.62 -1.27 180) (length 2.54)
          (name "M" (effects (font (size 1.27 1.27))))
          (number "2" (effects (font (size 1.27 1.27))))
        )
        (pin passive line (at 7.62 -3.81 180) (length 2.54)
          (name "DATA" (effects (font (size 1.27 1.27))))
          (number "3" (effects (font (size 1.27 1.27))))
        )
      )
    )
    (symbol "solar-energy:Heater Element" (in_bom yes) (on_board yes)
      (property "Reference" "G" (id 0) (at 0 6.35 0)
        (effects (font (size 1.27 1.27)))
      )
      (property "Value" "Heater Element" (id 1) (at 0 4.445 0)
        (effects (font (size 1.27 1.27)))
      )
      (property "Footprint" "" (id 2) (at -3.81 0 0)
        (effects (font (size 1.27 1.27)) hide)
      )
      (property "Datasheet" "" (id 3) (at -3.81 0 0)
        (effects (font (size 1.27 1.27)) hide)
      )
      (property "ki_description" "Heats water in the boiler tank" (id 4) (at 0 0 0)
        (effects (font (size 1.27 1.27)) hide)
      )
      (symbol "Heater Element_0_1"
        (polyline
          (pts
            (xy 3.81 3.175)
            (xy 3.81 -3.175)
            (xy -6.35 -3.175)
            (xy -6.35 3.175)
            (xy 3.81 3.175)
          )
          (stroke (width 0) (type default) (color 0 0 0 0))
          (fill (type background))
        )
      )
      (symbol "Heater Element_1_1"
        (pin passive line (at -8.89 1.27 0) (length 2.54)
          (name "IP" (effects (font (size 1.27 1.27))))
          (number "1" (effects (font (size 1.27 1.27))))
        )
        (pin passive line (at -8.89 -1.27 0) (length 2.54)
          (name "IM" (effects (font (size 1.27 1.27))))
          (number "2" (effects (font (size 1.27 1.27))))
        )
      )
    )
    (symbol "solar-energy:MPPT Inverter" (in_bom yes) (on_board yes)
      (property "Reference" "G" (id 0) (at 0 6.35 0)
        (effects (font (size 1.27 1.27)))
      )
      (property "Value" "MPPT Inverter" (id 1) (at 0.635 4.445 0)
        (effects (font (size 1.27 1.27)))
      )
      (property "Footprint" "" (id 2) (at -3.81 0 0)
        (effects (font (size 1.27 1.27)) hide)
      )
      (property "Datasheet" "" (id 3) (at -3.81 0 0)
        (effects (font (size 1.27 1.27)) hide)
      )
      (symbol "MPPT Inverter_0_1"
        (polyline
          (pts
            (xy 6.35 3.175)
            (xy 6.35 -5.715)
            (xy -6.35 -5.715)
            (xy -6.35 3.175)
            (xy 6.35 3.175)
          )
          (stroke (width 0) (type default) (color 0 0 0 0))
          (fill (type background))
        )
      )
      (symbol "MPPT Inverter_1_1"
        (pin passive line (at -8.89 1.27 0) (length 2.54)
          (name "IP" (effects (font (size 1.27 1.27))))
          (number "1" (effects (font (size 1.27 1.27))))
        )
        (pin passive line (at -8.89 -1.27 0) (length 2.54)
          (name "IM" (effects (font (size 1.27 1.27))))
          (number "2" (effects (font (size 1.27 1.27))))
        )
        (pin passive line (at 8.89 -3.81 180) (length 2.54)
          (name "CTRL" (effects (font (size 1.27 1.27))))
          (number "3" (effects (font (size 1.27 1.27))))
        )
        (pin passive line (at 8.89 -1.27 180) (length 2.54)
          (name "OM" (effects (font (size 1.27 1.27))))
          (number "4" (effects (font (size 1.27 1.27))))
        )
        (pin passive line (at 8.89 1.27 180) (length 2.54)
          (name "OP" (effects (font (size 1.27 1.27))))
          (number "5" (effects (font (size 1.27 1.27))))
        )
      )
    )
    (symbol "solar-energy:PV Panel" (in_bom yes) (on_board yes)
      (property "Reference" "PVP" (id 0) (at 0 6.35 0)
        (effects (font (size 1.27 1.27)))
      )
      (property "Value" "PV Panel" (id 1) (at 0 4.445 0)
        (effects (font (size 1.27 1.27)))
      )
      (property "Footprint" "" (id 2) (at -7.62 0 0)
        (effects (font (size 1.27 1.27)) hide)
      )
      (property "Datasheet" "" (id 3) (at -7.62 0 0)
        (effects (font (size 1.27 1.27)) hide)
      )
      (property "ki_description" "Generic PV Panel" (id 4) (at 0 0 0)
        (effects (font (size 1.27 1.27)) hide)
      )
      (symbol "PV Panel_0_1"
        (rectangle (start -5.08 3.175) (end 5.08 -3.175)
          (stroke (width 0.2032) (type default) (color 0 0 0 0))
          (fill (type background))
        )
      )
      (symbol "PV Panel_1_1"
        (pin passive line (at 7.62 1.27 180) (length 2.54)
          (name "P" (effects (font (size 1.27 1.27))))
          (number "1" (effects (font (size 1.27 1.27))))
        )
        (pin passive line (at 7.62 -1.27 180) (length 2.54)
          (name "M" (effects (font (size 1.27 1.27))))
          (number "2" (effects (font (size 1.27 1.27))))
        )
      )
    )
    (symbol "solar-energy:Temp Sensor" (in_bom yes) (on_board yes)
      (property "Reference" "G" (id 0) (at 0 5.08 0)
        (effects (font (size 1.27 1.27)))
      )
      (property "Value" "Temp Sensor" (id 1) (at 0 3.175 0)
        (effects (font (size 1.27 1.27)))
      )
      (property "Footprint" "" (id 2) (at -3.81 -1.27 0)
        (effects (font (size 1.27 1.27)) hide)
      )
      (property "Datasheet" "" (id 3) (at -3.81 -1.27 0)
        (effects (font (size 1.27 1.27)) hide)
      )
      (property "ki_description" "Measures water temp in the boiler tank" (id 4) (at 0 0 0)
        (effects (font (size 1.27 1.27)) hide)
      )
      (symbol "Temp Sensor_0_1"
        (polyline
          (pts
            (xy 3.81 1.905)
            (xy 3.81 -1.905)
            (xy -6.35 -1.905)
            (xy -6.35 1.905)
            (xy 3.81 1.905)
          )
          (stroke (width 0) (type default) (color 0 0 0 0))
          (fill (type background))
        )
      )
      (symbol "Temp Sensor_1_1"
        (pin passive line (at -8.89 0 0) (length 2.54)
          (name "DATA" (effects (font (size 1.27 1.27))))
          (number "2" (effects (font (size 1.27 1.27))))
        )
      )
    )
  )

  (junction (at 135.89 86.36) (diameter 0) (color 0 0 0 0)
    (uuid 0c465e42-dc51-44e3-9029-7e01073da533)
  )
  (junction (at 80.01 196.85) (diameter 0) (color 0 0 0 0)
    (uuid 1e0a9da5-46ef-45d5-a190-f9247533ceec)
  )
  (junction (at 146.05 180.34) (diameter 0) (color 0 0 0 0)
    (uuid 1ef5e821-f540-4610-b97b-ab3cd2374530)
  )
  (junction (at 87.63 251.46) (diameter 0) (color 0 0 0 0)
    (uuid 2fa8a9a4-2001-4726-a97b-cfb23f6c693b)
  )
  (junction (at 146.05 227.33) (diameter 0) (color 0 0 0 0)
    (uuid 434dd5bd-7cf3-47e7-9018-e17a5293f08d)
  )
  (junction (at 146.05 165.1) (diameter 0) (color 0 0 0 0)
    (uuid 473c3dba-407a-41c2-93bb-29be929c4149)
  )
  (junction (at 146.05 76.2) (diameter 0) (color 0 0 0 0)
    (uuid 52bae2d1-c530-4f46-9aa1-6f0d25f4776e)
  )
  (junction (at 138.43 113.03) (diameter 0) (color 0 0 0 0)
    (uuid 59670260-4daa-427f-8825-51ab2e9b3591)
  )
  (junction (at 146.05 121.92) (diameter 0) (color 0 0 0 0)
    (uuid 5978112e-ef2d-4e16-8618-40d99778983c)
  )
  (junction (at 138.43 88.9) (diameter 0) (color 0 0 0 0)
    (uuid 5e740979-657c-42e9-afef-a703bde04a6b)
  )
  (junction (at 82.55 246.38) (diameter 0) (color 0 0 0 0)
    (uuid 62b7ea24-133e-486f-896e-6604c8506335)
  )
  (junction (at 146.05 143.51) (diameter 0) (color 0 0 0 0)
    (uuid 6b40cd79-0776-41b6-a03f-a118dc55c841)
  )
  (junction (at 138.43 162.56) (diameter 0) (color 0 0 0 0)
    (uuid 6fb31209-8c1a-4592-9ce1-edf752071ad0)
  )
  (junction (at 135.89 55.88) (diameter 0) (color 0 0 0 0)
    (uuid 770355ae-bf26-4f39-b0d4-9aa56b20983c)
  )
  (junction (at 146.05 60.96) (diameter 0) (color 0 0 0 0)
    (uuid 7b7b778f-949b-4d2e-8959-79a4b5024d5b)
  )
  (junction (at 146.05 95.25) (diameter 0) (color 0 0 0 0)
    (uuid 85bf22d4-7c22-4789-ab78-1832608a5727)
  )
  (junction (at 82.55 199.39) (diameter 0) (color 0 0 0 0)
    (uuid 92deae9f-7875-4f58-90c9-a82e1256402d)
  )
  (junction (at 87.63 204.47) (diameter 0) (color 0 0 0 0)
    (uuid 9598b760-22e6-407a-806b-1be8fd1b8e34)
  )
  (junction (at 146.05 91.44) (diameter 0) (color 0 0 0 0)
    (uuid 9af19225-465c-486e-beb0-14c2cd88e990)
  )
  (junction (at 146.05 251.46) (diameter 0) (color 0 0 0 0)
    (uuid 9e49d421-afd7-4299-9196-11e2db7a14ea)
  )
  (junction (at 146.05 204.47) (diameter 0) (color 0 0 0 0)
    (uuid b3fa1169-9b7a-4ba6-a7e1-c389854515d2)
  )
  (junction (at 80.01 243.84) (diameter 0) (color 0 0 0 0)
    (uuid b4db5420-aaae-4180-a635-7a78e739c514)
  )
  (junction (at 138.43 58.42) (diameter 0) (color 0 0 0 0)
    (uuid c3a02f44-c19d-4df5-9e4f-2a1767fd3a41)
  )
  (junction (at 146.05 115.57) (diameter 0) (color 0 0 0 0)
    (uuid cc0ab45c-459c-402c-a832-0bf258ed9d43)
  )
  (junction (at 138.43 140.97) (diameter 0) (color 0 0 0 0)
    (uuid d2a129db-85cb-4d01-ab1f-a2e1a17d8145)
  )
  (junction (at 135.89 71.12) (diameter 0) (color 0 0 0 0)
    (uuid d657b4df-3cb4-47c4-985b-7e5dc40b17c1)
  )
  (junction (at 135.89 110.49) (diameter 0) (color 0 0 0 0)
    (uuid d8ff076a-f55d-469b-bd3d-e3dc21e1d8d5)
  )
  (junction (at 135.89 138.43) (diameter 0) (color 0 0 0 0)
    (uuid e50bdeb5-3174-4422-806a-77cdadf27884)
  )
  (junction (at 146.05 149.86) (diameter 0) (color 0 0 0 0)
    (uuid e696f469-2f3d-44df-9a71-eb5b41d78ee4)
  )
  (junction (at 85.09 248.92) (diameter 0) (color 0 0 0 0)
    (uuid e6e4e35b-5600-4178-9efe-e963ad3090d3)
  )
  (junction (at 85.09 201.93) (diameter 0) (color 0 0 0 0)
    (uuid f83e8fa0-d2bb-44a7-a503-5fd8fbe16fae)
  )
  (junction (at 135.89 160.02) (diameter 0) (color 0 0 0 0)
    (uuid f9744256-452c-4c72-b061-7d82374fbc93)
  )
  (junction (at 138.43 73.66) (diameter 0) (color 0 0 0 0)
    (uuid fb469594-aa73-4357-9a54-715d90cc852d)
  )

  (wire (pts (xy 82.55 246.38) (xy 82.55 273.05))
    (stroke (width 0) (type default) (color 0 0 0 0))
    (uuid 00d6a968-8f03-43eb-a0f4-4096395668fc)
  )
  (wire (pts (xy 138.43 73.66) (xy 138.43 88.9))
    (stroke (width 0) (type default) (color 0 0 0 0))
    (uuid 01694df0-755b-4797-93da-96580c5fdf4c)
  )
  (wire (pts (xy 109.22 204.47) (xy 146.05 204.47))
    (stroke (width 0) (type default) (color 0 0 0 0))
    (uuid 01f46185-a021-4008-b9c1-8c29c838aee2)
  )
  (wire (pts (xy 109.22 162.56) (xy 113.03 162.56))
    (stroke (width 0) (type default) (color 0 0 0 0))
    (uuid 034b67c0-ac81-4956-8178-e899f59ee9ac)
  )
  (wire (pts (xy 138.43 41.91) (xy 138.43 58.42))
    (stroke (width 0) (type default) (color 0 0 0 0))
    (uuid 035f853e-77bf-4f5f-ab47-15d94925711a)
  )
  (wire (pts (xy 130.81 227.33) (xy 146.05 227.33))
    (stroke (width 0) (type default) (color 0 0 0 0))
    (uuid 06f1e49e-c594-4df0-849e-a86d71e48733)
  )
  (wire (pts (xy 107.95 91.44) (xy 110.49 91.44))
    (stroke (width 0) (type default) (color 0 0 0 0))
    (uuid 076d969a-c5e9-470e-9892-ce2c9087ac83)
  )
  (wire (pts (xy 54.61 248.92) (xy 57.15 248.92))
    (stroke (width 0) (type default) (color 0 0 0 0))
    (uuid 0f071274-2184-47a5-878b-03fd61018318)
  )
  (wire (pts (xy 107.95 149.86) (xy 146.05 149.86))
    (stroke (width 0) (type default) (color 0 0 0 0))
    (uuid 0f6079d9-9dfd-4f40-8381-6ecb8c90e7a1)
  )
  (wire (pts (xy 130.81 113.03) (xy 138.43 113.03))
    (stroke (width 0) (type default) (color 0 0 0 0))
    (uuid 10c0961e-28b1-440c-a4d1-c5e5816c0380)
  )
  (wire (pts (xy 146.05 95.25) (xy 146.05 115.57))
    (stroke (width 0) (type default) (color 0 0 0 0))
    (uuid 1379366d-c4ad-49dd-b2d8-8f88a998feb1)
  )
  (wire (pts (xy 130.81 71.12) (xy 135.89 71.12))
    (stroke (width 0) (type default) (color 0 0 0 0))
    (uuid 13854670-424c-490c-ab4f-07368a0caffb)
  )
  (wire (pts (xy 146.05 44.45) (xy 129.54 44.45))
    (stroke (width 0) (type default) (color 0 0 0 0))
    (uuid 16f35c7d-eaf6-4812-b7d8-ea2ef8bd3eda)
  )
  (wire (pts (xy 138.43 58.42) (xy 138.43 73.66))
    (stroke (width 0) (type default) (color 0 0 0 0))
    (uuid 1854745e-e384-4a22-b7e9-13f8193cc565)
  )
  (wire (pts (xy 80.01 243.84) (xy 113.03 243.84))
    (stroke (width 0) (type default) (color 0 0 0 0))
    (uuid 1e4182af-2ed8-4ee0-95c2-ef63949f7283)
  )
  (polyline (pts (xy 110.49 104.14) (xy 110.49 125.73))
    (stroke (width 0) (type default) (color 0 0 0 0))
    (uuid 218af7f2-3aba-4a94-8abb-a5dd55b9ba2c)
  )

  (wire (pts (xy 54.61 246.38) (xy 57.15 246.38))
    (stroke (width 0) (type default) (color 0 0 0 0))
    (uuid 220dfbdf-0145-41d4-9242-35fb6b55fb38)
  )
  (wire (pts (xy 135.89 110.49) (xy 135.89 138.43))
    (stroke (width 0) (type default) (color 0 0 0 0))
    (uuid 2239811e-8d90-4d84-99f5-fccb43b866dc)
  )
  (polyline (pts (xy 90.17 190.5) (xy 110.49 190.5))
    (stroke (width 0) (type default) (color 0 0 0 0))
    (uuid 23d5e76f-6924-42e3-b5b7-59aef6e8d25f)
  )
  (polyline (pts (xy 88.9 125.73) (xy 88.9 104.14))
    (stroke (width 0) (type default) (color 0 0 0 0))
    (uuid 2e44a062-6472-44bc-a0ef-6fd556e838ca)
  )

  (wire (pts (xy 107.95 121.92) (xy 146.05 121.92))
    (stroke (width 0) (type default) (color 0 0 0 0))
    (uuid 2e52eae0-99b2-4beb-9d1c-b2d89856504d)
  )
  (wire (pts (xy 138.43 88.9) (xy 138.43 113.03))
    (stroke (width 0) (type default) (color 0 0 0 0))
    (uuid 3168516a-6ed1-4a1a-90b7-14814ce79e3d)
  )
  (wire (pts (xy 146.05 149.86) (xy 146.05 165.1))
    (stroke (width 0) (type default) (color 0 0 0 0))
    (uuid 32275c08-d402-4e78-acd6-c275b1e01c31)
  )
  (wire (pts (xy 74.93 251.46) (xy 87.63 251.46))
    (stroke (width 0) (type default) (color 0 0 0 0))
    (uuid 3266837c-668d-4c34-8f3c-777e07434c07)
  )
  (polyline (pts (xy 110.49 190.5) (xy 110.49 209.55))
    (stroke (width 0) (type default) (color 0 0 0 0))
    (uuid 3280ee31-41d2-4c18-9123-cdfdf25202d7)
  )

  (wire (pts (xy 87.63 251.46) (xy 87.63 273.05))
    (stroke (width 0) (type default) (color 0 0 0 0))
    (uuid 37aafb29-e6c7-4f98-871c-1bbaff01d797)
  )
  (wire (pts (xy 130.81 165.1) (xy 146.05 165.1))
    (stroke (width 0) (type default) (color 0 0 0 0))
    (uuid 3a162e86-22dc-47ec-ac90-c070cd9340f9)
  )
  (wire (pts (xy 135.89 71.12) (xy 135.89 86.36))
    (stroke (width 0) (type default) (color 0 0 0 0))
    (uuid 3a8af252-8034-4b5e-b11e-540f3ae44e37)
  )
  (wire (pts (xy 80.01 243.84) (xy 80.01 273.05))
    (stroke (width 0) (type default) (color 0 0 0 0))
    (uuid 3b1a1f9e-6b63-4d6c-a779-7aa351f423f9)
  )
  (wire (pts (xy 82.55 175.26) (xy 82.55 199.39))
    (stroke (width 0) (type default) (color 0 0 0 0))
    (uuid 3dd7c0e3-bd9b-4bab-b681-49b61543a451)
  )
  (wire (pts (xy 82.55 246.38) (xy 113.03 246.38))
    (stroke (width 0) (type default) (color 0 0 0 0))
    (uuid 3e89631f-bedf-4b46-82a9-e16eee1bd3c1)
  )
  (wire (pts (xy 87.63 180.34) (xy 91.44 180.34))
    (stroke (width 0) (type default) (color 0 0 0 0))
    (uuid 3f8d1f67-d2c3-45bf-944d-53eb6003b768)
  )
  (wire (pts (xy 130.81 110.49) (xy 135.89 110.49))
    (stroke (width 0) (type default) (color 0 0 0 0))
    (uuid 408e885a-af51-413c-aa99-8afd1d254f27)
  )
  (wire (pts (xy 135.89 243.84) (xy 130.81 243.84))
    (stroke (width 0) (type default) (color 0 0 0 0))
    (uuid 40e73b61-f323-4361-bbe5-e0f49c320db7)
  )
  (wire (pts (xy 130.81 73.66) (xy 138.43 73.66))
    (stroke (width 0) (type default) (color 0 0 0 0))
    (uuid 4150885e-5b85-4857-8d16-6cd09a44d4c2)
  )
  (wire (pts (xy 85.09 177.8) (xy 85.09 201.93))
    (stroke (width 0) (type default) (color 0 0 0 0))
    (uuid 4258b9ef-afae-4ad8-aed8-a60cb538d144)
  )
  (wire (pts (xy 107.95 140.97) (xy 113.03 140.97))
    (stroke (width 0) (type default) (color 0 0 0 0))
    (uuid 42bb65e9-d68f-4e5f-8835-85119a44716a)
  )
  (wire (pts (xy 87.63 204.47) (xy 91.44 204.47))
    (stroke (width 0) (type default) (color 0 0 0 0))
    (uuid 44fc3bed-626b-4b3a-92ec-7b7fb58ce116)
  )
  (wire (pts (xy 87.63 204.47) (xy 87.63 251.46))
    (stroke (width 0) (type default) (color 0 0 0 0))
    (uuid 45815663-56da-439b-8f3a-46e682910572)
  )
  (wire (pts (xy 80.01 172.72) (xy 80.01 196.85))
    (stroke (width 0) (type default) (color 0 0 0 0))
    (uuid 46133d0f-4731-4562-b124-49c9fea3e9bf)
  )
  (wire (pts (xy 87.63 180.34) (xy 87.63 204.47))
    (stroke (width 0) (type default) (color 0 0 0 0))
    (uuid 46b044c7-5f49-40e6-8b5b-45a405238224)
  )
  (wire (pts (xy 146.05 143.51) (xy 146.05 149.86))
    (stroke (width 0) (type default) (color 0 0 0 0))
    (uuid 47814fb4-7acb-434e-a547-d685f91369bd)
  )
  (wire (pts (xy 130.81 55.88) (xy 135.89 55.88))
    (stroke (width 0) (type default) (color 0 0 0 0))
    (uuid 48321a44-adf2-46ea-8003-69ffe99aaa7d)
  )
  (wire (pts (xy 110.49 95.25) (xy 146.05 95.25))
    (stroke (width 0) (type default) (color 0 0 0 0))
    (uuid 48bc8bd0-7498-4bdd-812d-ca8ffaaf2104)
  )
  (wire (pts (xy 130.81 115.57) (xy 146.05 115.57))
    (stroke (width 0) (type default) (color 0 0 0 0))
    (uuid 49e13661-afa5-4ae5-8937-9880527d8e3e)
  )
  (wire (pts (xy 82.55 199.39) (xy 82.55 246.38))
    (stroke (width 0) (type default) (color 0 0 0 0))
    (uuid 4ab22bab-8712-4988-abb9-ab239f0c76de)
  )
  (wire (pts (xy 146.05 115.57) (xy 146.05 121.92))
    (stroke (width 0) (type default) (color 0 0 0 0))
    (uuid 4f25ceab-5d0e-4d57-991d-e95e3ca01a48)
  )
  (wire (pts (xy 146.05 60.96) (xy 146.05 76.2))
    (stroke (width 0) (type default) (color 0 0 0 0))
    (uuid 514d7100-47a6-461e-9aa4-3d831732e046)
  )
  (polyline (pts (xy 120.65 46.99) (xy 120.65 50.8))
    (stroke (width 0) (type default) (color 0 0 0 0))
    (uuid 538afb03-7088-40fa-b082-8a420309b914)
  )
  (polyline (pts (xy 99.06 50.8) (xy 99.06 44.45))
    (stroke (width 0) (type default) (color 0 0 0 0))
    (uuid 541f5081-2d2f-4c09-b469-fa26aa2b5486)
  )

  (wire (pts (xy 146.05 204.47) (xy 146.05 227.33))
    (stroke (width 0) (type default) (color 0 0 0 0))
    (uuid 548ebf26-b74e-45f7-8239-f5f039baa7fc)
  )
  (wire (pts (xy 129.54 41.91) (xy 138.43 41.91))
    (stroke (width 0) (type default) (color 0 0 0 0))
    (uuid 54cfbd35-2b77-4f06-97dd-dfa490f21945)
  )
  (wire (pts (xy 107.95 113.03) (xy 113.03 113.03))
    (stroke (width 0) (type default) (color 0 0 0 0))
    (uuid 5f152d5b-884f-4cd3-97cc-0392f0b06fb7)
  )
  (wire (pts (xy 87.63 251.46) (xy 113.03 251.46))
    (stroke (width 0) (type default) (color 0 0 0 0))
    (uuid 60f85fd9-5005-45d4-9f7b-6cf2b9940893)
  )
  (wire (pts (xy 146.05 165.1) (xy 146.05 180.34))
    (stroke (width 0) (type default) (color 0 0 0 0))
    (uuid 62ee64ad-d413-46b6-82d0-204e98de346d)
  )
  (wire (pts (xy 146.05 76.2) (xy 146.05 91.44))
    (stroke (width 0) (type default) (color 0 0 0 0))
    (uuid 666e3538-9d27-451e-bfd2-40d313e248a2)
  )
  (polyline (pts (xy 72.39 86.36) (xy 93.98 86.36))
    (stroke (width 0) (type default) (color 0 0 0 0))
    (uuid 6860474a-ecde-4edc-a92a-d7d6b13a479e)
  )
  (polyline (pts (xy 80.01 110.49) (xy 87.63 110.49))
    (stroke (width 0) (type default) (color 0 0 0 0))
    (uuid 699d7c05-f602-4d5f-b9fb-9ca218bc16dd)
  )

  (wire (pts (xy 130.81 91.44) (xy 146.05 91.44))
    (stroke (width 0) (type default) (color 0 0 0 0))
    (uuid 69b544ad-a0eb-4ce1-9ad5-2a85ff70d614)
  )
  (wire (pts (xy 130.81 138.43) (xy 135.89 138.43))
    (stroke (width 0) (type default) (color 0 0 0 0))
    (uuid 6b5d2274-4e1f-4542-a368-79a20283ff36)
  )
  (wire (pts (xy 107.95 58.42) (xy 113.03 58.42))
    (stroke (width 0) (type default) (color 0 0 0 0))
    (uuid 6b78c587-af9b-419f-98db-e333164ac407)
  )
  (wire (pts (xy 130.81 143.51) (xy 146.05 143.51))
    (stroke (width 0) (type default) (color 0 0 0 0))
    (uuid 6f096fad-1a65-491c-8b2b-1f6f7bd7e595)
  )
  (polyline (pts (xy 110.49 209.55) (xy 90.17 209.55))
    (stroke (width 0) (type default) (color 0 0 0 0))
    (uuid 75ca43a6-3f34-4849-8e29-d4b3c53b3100)
  )

  (wire (pts (xy 85.09 201.93) (xy 91.44 201.93))
    (stroke (width 0) (type default) (color 0 0 0 0))
    (uuid 7763b868-72f7-4110-bad9-7eca4d78cd2c)
  )
  (wire (pts (xy 107.95 41.91) (xy 111.76 41.91))
    (stroke (width 0) (type default) (color 0 0 0 0))
    (uuid 7b177616-7edd-4908-82b4-3090de69920d)
  )
  (wire (pts (xy 130.81 76.2) (xy 146.05 76.2))
    (stroke (width 0) (type default) (color 0 0 0 0))
    (uuid 8130c869-b70d-4136-8c55-c37ed7bb21b4)
  )
  (wire (pts (xy 135.89 55.88) (xy 135.89 71.12))
    (stroke (width 0) (type default) (color 0 0 0 0))
    (uuid 826c1449-5fc0-452d-bba4-5bea354c03d7)
  )
  (wire (pts (xy 109.22 160.02) (xy 113.03 160.02))
    (stroke (width 0) (type default) (color 0 0 0 0))
    (uuid 85e7fab9-188a-4800-93ac-ada91c655264)
  )
  (wire (pts (xy 107.95 73.66) (xy 113.03 73.66))
    (stroke (width 0) (type default) (color 0 0 0 0))
    (uuid 8625e29a-c782-4ed4-a4a8-3b6c3abd86b4)
  )
  (polyline (pts (xy 88.9 193.04) (xy 72.39 193.04))
    (stroke (width 0) (type default) (color 0 0 0 0))
    (uuid 8773cdd0-ee8d-4276-a529-e5830a844c97)
  )
  (polyline (pts (xy 76.2 88.9) (xy 76.2 139.7))
    (stroke (width 0) (type default) (color 0 0 0 0))
    (uuid 8844894c-c7db-4ac8-8cd7-7ee8dc2ab6d3)
  )

  (wire (pts (xy 80.01 196.85) (xy 91.44 196.85))
    (stroke (width 0) (type default) (color 0 0 0 0))
    (uuid 89f357b9-d9de-443f-b09e-dd20e4423eb4)
  )
  (wire (pts (xy 85.09 248.92) (xy 113.03 248.92))
    (stroke (width 0) (type default) (color 0 0 0 0))
    (uuid 8c6910ca-1cce-472c-b3d7-a058fb0fc38a)
  )
  (wire (pts (xy 146.05 121.92) (xy 146.05 143.51))
    (stroke (width 0) (type default) (color 0 0 0 0))
    (uuid 8e2f64f7-0511-4f30-b35d-af59ad596815)
  )
  (wire (pts (xy 85.09 201.93) (xy 85.09 248.92))
    (stroke (width 0) (type default) (color 0 0 0 0))
    (uuid 8ee44f4c-52f6-437c-8566-6965e0ad47e1)
  )
  (wire (pts (xy 135.89 86.36) (xy 135.89 110.49))
    (stroke (width 0) (type default) (color 0 0 0 0))
    (uuid 91d5aa9e-1801-48f1-a182-149fb54fec28)
  )
  (wire (pts (xy 138.43 246.38) (xy 130.81 246.38))
    (stroke (width 0) (type default) (color 0 0 0 0))
    (uuid 988867ab-aa07-441d-96ce-ea67c3a4df06)
  )
  (wire (pts (xy 135.89 160.02) (xy 135.89 243.84))
    (stroke (width 0) (type default) (color 0 0 0 0))
    (uuid 996ed8cb-45d7-4824-9198-f8c79a42822d)
  )
  (polyline (pts (xy 90.17 185.42) (xy 90.17 132.08))
    (stroke (width 0) (type default) (color 0 0 0 0))
    (uuid 9aa6e507-bd9a-46c7-a184-8d9cf8da1a64)
  )

  (wire (pts (xy 107.95 110.49) (xy 113.03 110.49))
    (stroke (width 0) (type default) (color 0 0 0 0))
    (uuid 9e6b65f3-9689-4c2c-beda-25e48091037e)
  )
  (wire (pts (xy 130.81 60.96) (xy 146.05 60.96))
    (stroke (width 0) (type default) (color 0 0 0 0))
    (uuid 9edbec77-ec61-498b-8f08-124048fc9940)
  )
  (wire (pts (xy 146.05 227.33) (xy 146.05 251.46))
    (stroke (width 0) (type default) (color 0 0 0 0))
    (uuid a10c8e26-8ae8-4bd7-8860-de8117a95ceb)
  )
  (polyline (pts (xy 110.49 132.08) (xy 110.49 185.42))
    (stroke (width 0) (type default) (color 0 0 0 0))
    (uuid a26e8c4e-54e2-41e0-ac52-e50d53e757f8)
  )

  (wire (pts (xy 85.09 177.8) (xy 91.44 177.8))
    (stroke (width 0) (type default) (color 0 0 0 0))
    (uuid a857b11f-1885-4370-9838-5ffe8a9ccff5)
  )
  (wire (pts (xy 54.61 251.46) (xy 57.15 251.46))
    (stroke (width 0) (type default) (color 0 0 0 0))
    (uuid a99e4e8b-907f-4921-af6b-5a98824a3fb9)
  )
  (polyline (pts (xy 90.17 132.08) (xy 110.49 132.08))
    (stroke (width 0) (type default) (color 0 0 0 0))
    (uuid aa98e6d9-8e5a-47e3-a73d-0b19733419f2)
  )

  (wire (pts (xy 130.81 162.56) (xy 138.43 162.56))
    (stroke (width 0) (type default) (color 0 0 0 0))
    (uuid abbe37ff-365f-4476-a174-673e024811ce)
  )
  (wire (pts (xy 107.95 55.88) (xy 113.03 55.88))
    (stroke (width 0) (type default) (color 0 0 0 0))
    (uuid ac9442a2-5919-4619-a258-03a2d261da54)
  )
  (wire (pts (xy 130.81 251.46) (xy 146.05 251.46))
    (stroke (width 0) (type default) (color 0 0 0 0))
    (uuid b091c085-d565-4d7d-8305-4a37777629d8)
  )
  (wire (pts (xy 107.95 88.9) (xy 113.03 88.9))
    (stroke (width 0) (type default) (color 0 0 0 0))
    (uuid b2fee445-1cc1-41eb-aa07-befd2ffdcf1c)
  )
  (wire (pts (xy 146.05 180.34) (xy 146.05 204.47))
    (stroke (width 0) (type default) (color 0 0 0 0))
    (uuid b41f3aab-ba70-4a71-a19f-8925c2fa8ba2)
  )
  (wire (pts (xy 130.81 160.02) (xy 135.89 160.02))
    (stroke (width 0) (type default) (color 0 0 0 0))
    (uuid b5998dc8-d71f-47ae-aacc-7ca3dc87f7ac)
  )
  (wire (pts (xy 138.43 162.56) (xy 138.43 246.38))
    (stroke (width 0) (type default) (color 0 0 0 0))
    (uuid b5c143fc-7ff3-4c52-a93c-01501fcf99c6)
  )
  (wire (pts (xy 130.81 140.97) (xy 138.43 140.97))
    (stroke (width 0) (type default) (color 0 0 0 0))
    (uuid b7b3c1fe-af9a-4d74-a938-8faa411b6f34)
  )
  (wire (pts (xy 129.54 39.37) (xy 135.89 39.37))
    (stroke (width 0) (type default) (color 0 0 0 0))
    (uuid bbe1caba-175a-4338-b799-bd3587ca8943)
  )
  (wire (pts (xy 74.93 243.84) (xy 80.01 243.84))
    (stroke (width 0) (type default) (color 0 0 0 0))
    (uuid bc5ff0dd-c9bf-4a61-a72b-745d00ed82d9)
  )
  (wire (pts (xy 107.95 138.43) (xy 113.03 138.43))
    (stroke (width 0) (type default) (color 0 0 0 0))
    (uuid be075f8a-f6b9-40db-b1cb-a715b0d73fb2)
  )
  (polyline (pts (xy 93.98 88.9) (xy 76.2 88.9))
    (stroke (width 0) (type default) (color 0 0 0 0))
    (uuid bf5ed560-ab10-4a35-a53b-6d4850cf29d5)
  )

  (wire (pts (xy 107.95 86.36) (xy 113.03 86.36))
    (stroke (width 0) (type default) (color 0 0 0 0))
    (uuid c8bbe9f2-4e30-4923-b4ef-5258d7222c42)
  )
  (wire (pts (xy 74.93 248.92) (xy 85.09 248.92))
    (stroke (width 0) (type default) (color 0 0 0 0))
    (uuid c8c09eea-4c4c-4894-b386-e479347c3c4e)
  )
  (polyline (pts (xy 90.17 190.5) (xy 90.17 209.55))
    (stroke (width 0) (type default) (color 0 0 0 0))
    (uuid c8f7b6c4-6110-4323-98e4-5ca7f77853cc)
  )
  (polyline (pts (xy 93.98 91.44) (xy 80.01 91.44))
    (stroke (width 0) (type default) (color 0 0 0 0))
    (uuid cb8b2b42-1285-417c-8641-d1521c9a7f81)
  )
  (polyline (pts (xy 76.2 139.7) (xy 88.9 139.7))
    (stroke (width 0) (type default) (color 0 0 0 0))
    (uuid cbad6883-c76d-467d-a886-f99f1a8c0353)
  )

  (wire (pts (xy 109.22 180.34) (xy 146.05 180.34))
    (stroke (width 0) (type default) (color 0 0 0 0))
    (uuid cc057435-5ef3-468d-b3bb-a3b4a0741502)
  )
  (polyline (pts (xy 72.39 193.04) (xy 72.39 86.36))
    (stroke (width 0) (type default) (color 0 0 0 0))
    (uuid cdcb58a1-5bf5-4b33-9d90-6f23730e0021)
  )
  (polyline (pts (xy 80.01 91.44) (xy 80.01 110.49))
    (stroke (width 0) (type default) (color 0 0 0 0))
    (uuid ce3f0b7b-eacb-4d55-80db-1b6fddeef591)
  )

  (wire (pts (xy 74.93 256.54) (xy 146.05 256.54))
    (stroke (width 0) (type default) (color 0 0 0 0))
    (uuid ceb8dafb-e0fd-4e8e-ba74-60a7432d5813)
  )
  (wire (pts (xy 107.95 71.12) (xy 113.03 71.12))
    (stroke (width 0) (type default) (color 0 0 0 0))
    (uuid d005b7ad-2327-4090-be52-d54ae331fb3d)
  )
  (wire (pts (xy 82.55 199.39) (xy 91.44 199.39))
    (stroke (width 0) (type default) (color 0 0 0 0))
    (uuid d02eb728-f3f0-49f1-8515-22d82d8a6b1a)
  )
  (wire (pts (xy 82.55 175.26) (xy 91.44 175.26))
    (stroke (width 0) (type default) (color 0 0 0 0))
    (uuid d0aed2c4-ed37-4288-84f3-b882a5be5a8a)
  )
  (wire (pts (xy 146.05 91.44) (xy 146.05 95.25))
    (stroke (width 0) (type default) (color 0 0 0 0))
    (uuid d100ccec-ace5-44c0-81fb-2d353e02d395)
  )
  (wire (pts (xy 80.01 172.72) (xy 91.44 172.72))
    (stroke (width 0) (type default) (color 0 0 0 0))
    (uuid d16b2c3c-3f12-42c5-86bc-8fbba8a584e1)
  )
  (wire (pts (xy 146.05 60.96) (xy 146.05 44.45))
    (stroke (width 0) (type default) (color 0 0 0 0))
    (uuid d1f21078-95b0-4157-9f58-52451b325164)
  )
  (wire (pts (xy 146.05 251.46) (xy 146.05 256.54))
    (stroke (width 0) (type default) (color 0 0 0 0))
    (uuid d45c834b-03b4-4fe0-87eb-ea5599af1311)
  )
  (wire (pts (xy 107.95 39.37) (xy 111.76 39.37))
    (stroke (width 0) (type default) (color 0 0 0 0))
    (uuid dc4307ea-f93b-4a6d-b866-6568f878cc22)
  )
  (polyline (pts (xy 110.49 125.73) (xy 88.9 125.73))
    (stroke (width 0) (type default) (color 0 0 0 0))
    (uuid dd64e275-3bc3-403c-a949-8a5332d81673)
  )

  (wire (pts (xy 80.01 196.85) (xy 80.01 243.84))
    (stroke (width 0) (type default) (color 0 0 0 0))
    (uuid dfbeefe3-3e5e-46a1-a415-0691cce57cc4)
  )
  (wire (pts (xy 135.89 39.37) (xy 135.89 55.88))
    (stroke (width 0) (type default) (color 0 0 0 0))
    (uuid e003070f-e45e-4587-abf5-87d8aa3727cd)
  )
  (wire (pts (xy 135.89 138.43) (xy 135.89 160.02))
    (stroke (width 0) (type default) (color 0 0 0 0))
    (uuid e464c030-2d9e-41f8-b9ad-4348059b8187)
  )
  (wire (pts (xy 85.09 248.92) (xy 85.09 273.05))
    (stroke (width 0) (type default) (color 0 0 0 0))
    (uuid e77578bf-4833-4c81-9369-3af4c1ffe04c)
  )
  (wire (pts (xy 110.49 91.44) (xy 110.49 95.25))
    (stroke (width 0) (type default) (color 0 0 0 0))
    (uuid ed53649b-847f-4b9e-997b-69fba4e22965)
  )
  (wire (pts (xy 130.81 86.36) (xy 135.89 86.36))
    (stroke (width 0) (type default) (color 0 0 0 0))
    (uuid ed8cae19-99b5-4539-bb5f-1b5247c1ff36)
  )
  (wire (pts (xy 138.43 113.03) (xy 138.43 140.97))
    (stroke (width 0) (type default) (color 0 0 0 0))
    (uuid ef40b661-99b6-4655-a645-5a30598af81a)
  )
  (wire (pts (xy 138.43 140.97) (xy 138.43 162.56))
    (stroke (width 0) (type default) (color 0 0 0 0))
    (uuid f020588c-6055-4736-a071-6d3b0b8a0967)
  )
  (wire (pts (xy 74.93 246.38) (xy 82.55 246.38))
    (stroke (width 0) (type default) (color 0 0 0 0))
    (uuid f07590dd-3abc-4680-bb8d-29b0d9909272)
  )
  (wire (pts (xy 130.81 58.42) (xy 138.43 58.42))
    (stroke (width 0) (type default) (color 0 0 0 0))
    (uuid f1a2e2a0-277b-4a68-a2e0-5912f6f9fefa)
  )
  (polyline (pts (xy 88.9 104.14) (xy 110.49 104.14))
    (stroke (width 0) (type default) (color 0 0 0 0))
    (uuid f55d3a88-c3f3-4885-85b2-1c1d6f1d4c7f)
  )

  (wire (pts (xy 130.81 88.9) (xy 138.43 88.9))
    (stroke (width 0) (type default) (color 0 0 0 0))
    (uuid f8305f7c-691b-4ea9-8f83-f89f132cca86)
  )
  (polyline (pts (xy 110.49 185.42) (xy 90.17 185.42))
    (stroke (width 0) (type default) (color 0 0 0 0))
    (uuid f9c87cfa-261d-4e79-a06a-78dc46a30b7d)
  )

  (wire (pts (xy 54.61 243.84) (xy 57.15 243.84))
    (stroke (width 0) (type default) (color 0 0 0 0))
    (uuid feff72c3-dff6-49ee-97e6-f7f97ccf7b81)
  )

  (text "H2 Storage Tank" (at 90.17 130.81 0)
    (effects (font (size 1.27 1.27)) (justify left bottom))
    (uuid 19e952d0-b407-4733-b42c-fab276f4c8f1)
  )
  (text "Oxygen" (at 83.82 86.36 0)
    (effects (font (size 1.27 1.27)) (justify left bottom))
    (uuid 205ae656-e088-47c4-b86f-97490ecbafc2)
  )
  (text "Hydrogen" (at 83.82 88.9 0)
    (effects (font (size 1.27 1.27)) (justify left bottom))
    (uuid 223c86a9-579e-478a-9dae-bed39b3a8720)
  )
  (text "Home Power Net" (at 76.2 276.86 0)
    (effects (font (size 1.27 1.27)) (justify left bottom))
    (uuid 22d2a439-253d-4436-8b51-7caf6c067b4a)
  )
  (text "Hot Water Boiler" (at 90.17 102.87 0)
    (effects (font (size 1.27 1.27)) (justify left bottom))
    (uuid 3742053c-b914-441b-8a41-d6387cc11901)
  )
  (text "Control Data Bus\n" (at 144.78 200.66 90)
    (effects (font (size 1.27 1.27)) (justify left bottom))
    (uuid 6d728c58-1d9c-43d8-bf32-de927c2cd55a)
  )
  (text "Heat" (at 85.09 91.44 0)
    (effects (font (size 1.27 1.27)) (justify left bottom))
    (uuid 96572897-7cba-48a6-ab52-870cfc577dec)
  )
  (text "O2 Storage Tank" (at 91.44 189.23 0)
    (effects (font (size 1.27 1.27)) (justify left bottom))
    (uuid bd136466-e461-463e-8e7a-0571acfdf573)
  )
  (text "Supplier\nNetwork\n" (at 45.72 250.19 0)
    (effects (font (size 1.27 1.27)) (justify left bottom))
    (uuid d678225c-164b-4834-b6d5-6c412c3225b7)
  )
  (text "DC Power Bus" (at 138.43 199.39 90)
    (effects (font (size 1.27 1.27)) (justify left bottom))
    (uuid dccdd14b-6b41-45c4-b872-9b2748870c4c)
  )

  (symbol (lib_id "solar-energy:2-Way Energy Meter") (at 66.04 247.65 0) (unit 1)
    (in_bom yes) (on_board yes)
    (uuid 03e1f1e4-e77c-401e-b61d-92a0355b045f)
    (property "Reference" "G?" (id 0) (at 66.04 240.03 0))
    (property "Value" "2-Way Energy Meter" (id 1) (at 66.675 260.35 0))
    (property "Footprint" "" (id 2) (at 62.23 245.11 0)
      (effects (font (size 1.27 1.27)) hide)
    )
    (property "Datasheet" "" (id 3) (at 62.23 245.11 0)
      (effects (font (size 1.27 1.27)) hide)
    )
    (pin "1" (uuid d2ab2721-eb57-4b4c-8dcc-eddd9679abc9))
    (pin "2" (uuid 42b855c1-98d0-4701-a691-775545446601))
    (pin "3" (uuid 0280a1ea-f5b2-4f05-a535-7c942897f67f))
    (pin "4" (uuid b5fc08e3-0c90-46a7-a3d6-cef24fe2c006))
    (pin "5" (uuid bc289ce2-37f5-4a97-8e5d-d2d4c53e77f3))
    (pin "6" (uuid 76e538b2-affb-4152-9d60-d8477b819977))
    (pin "7" (uuid c44d3b2e-daaa-47d8-b201-157d4eb35873))
    (pin "8" (uuid 2690840e-a058-4957-bdca-096543ddf1cc))
    (pin "9" (uuid 4d22996d-04eb-4daa-a6f8-ab3d010d1330))
  )

  (symbol (lib_id "solar-energy:MPPT Inverter") (at 120.65 40.64 0) (unit 1)
    (in_bom yes) (on_board yes) (fields_autoplaced)
    (uuid 0a41dda0-ed1b-4341-9fbb-a9fab71252a8)
    (property "Reference" "G?" (id 0) (at 120.65 34.29 0))
    (property "Value" "MPPT Inverter" (id 1) (at 121.285 36.195 0))
    (property "Footprint" "" (id 2) (at 116.84 40.64 0)
      (effects (font (size 1.27 1.27)) hide)
    )
    (property "Datasheet" "" (id 3) (at 116.84 40.64 0)
      (effects (font (size 1.27 1.27)) hide)
    )
    (pin "1" (uuid 24e5d399-a02b-446b-9361-a7c7f91c0447))
    (pin "2" (uuid 7ba1a145-52af-49f4-8197-4072da74eb95))
    (pin "3" (uuid 8f69876a-05e1-47cd-bdfa-2989e48fe118))
    (pin "4" (uuid 3ec7502a-058d-4533-8457-a01c1f04d333))
    (pin "5" (uuid 38a97470-af11-4f79-8d7a-416770f94af9))
  )

  (symbol (lib_id "solar-energy:Compressor") (at 100.33 200.66 0) (mirror y) (unit 1)
    (in_bom yes) (on_board yes)
    (uuid 0d7ee9ef-bf79-4fee-8223-3fdf9614ffc7)
    (property "Reference" "G?" (id 0) (at 100.33 191.77 0))
    (property "Value" "Compressor" (id 1) (at 100.33 193.675 0))
    (property "Footprint" "" (id 2) (at 100.33 200.66 0)
      (effects (font (size 1.27 1.27)) hide)
    )
    (property "Datasheet" "" (id 3) (at 100.33 200.66 0)
      (effects (font (size 1.27 1.27)) hide)
    )
    (pin "1" (uuid b7ad4db4-176f-45df-8dcf-ff62ba2a555f))
    (pin "2" (uuid d94624ba-47bc-424f-9341-f06188acd7bf))
    (pin "3" (uuid 6a0b6c07-5b79-4dde-91b4-9e7fef42ed14))
    (pin "4" (uuid 8b6ee51f-379c-46c8-9799-4710e125c9f3))
    (pin "5" (uuid f3db97a3-daa3-4750-a6b7-d5a7fbbc5e8a))
  )

  (symbol (lib_id "solar-energy:MPPT Inverter") (at 121.92 57.15 0) (unit 1)
    (in_bom yes) (on_board yes)
    (uuid 14963b12-bcd6-4646-a7c5-e0d834dc9701)
    (property "Reference" "G?" (id 0) (at 121.92 50.8 0))
    (property "Value" "MPPT Inverter" (id 1) (at 122.555 52.705 0))
    (property "Footprint" "" (id 2) (at 118.11 57.15 0)
      (effects (font (size 1.27 1.27)) hide)
    )
    (property "Datasheet" "" (id 3) (at 118.11 57.15 0)
      (effects (font (size 1.27 1.27)) hide)
    )
    (pin "1" (uuid e60709b0-d186-48ab-a0f8-8d2cbb84db74))
    (pin "2" (uuid c9abca85-fced-4f42-8971-2a3f4c2b5c2e))
    (pin "3" (uuid db7b7136-89be-4994-98dd-f86bf4ac1627))
    (pin "4" (uuid e6f56b89-e1c9-4e2f-a0fa-cfadd6ed7285))
    (pin "5" (uuid c9896787-b32e-4564-82d4-ad54a5ce0026))
  )

  (symbol (lib_id "solar-energy:DC{slash}DC Converter") (at 121.92 139.7 0) (mirror y) (unit 1)
    (in_bom yes) (on_board yes) (fields_autoplaced)
    (uuid 1bd31677-9f47-411d-974e-596f8cc60ea6)
    (property "Reference" "G?" (id 0) (at 121.92 133.35 0))
    (property "Value" "DC/DC Converter" (id 1) (at 121.92 135.255 0))
    (property "Footprint" "" (id 2) (at 125.73 139.7 0)
      (effects (font (size 1.27 1.27)) hide)
    )
    (property "Datasheet" "" (id 3) (at 125.73 139.7 0)
      (effects (font (size 1.27 1.27)) hide)
    )
    (pin "1" (uuid e4dd36a0-9fd6-4f22-a198-a1774982abf3))
    (pin "2" (uuid 85d7bb4f-43cf-4e43-aa6e-804cf90cbf58))
    (pin "3" (uuid 8536731f-6498-4d1a-b26c-1f1e6585b95a))
    (pin "4" (uuid a0a2c238-eb14-4994-86e7-9b09863dcee4))
    (pin "5" (uuid bc825b2b-1ffc-4b7d-b4f9-67aeb053c11a))
  )

  (symbol (lib_id "solar-energy:Fuel Cell") (at 100.33 87.63 0) (unit 1)
    (in_bom yes) (on_board yes)
    (uuid 2b45d6b2-f979-4134-941b-983e9ff86088)
    (property "Reference" "G?" (id 0) (at 100.33 81.28 0))
    (property "Value" "Fuel Cell" (id 1) (at 100.33 83.185 0))
    (property "Footprint" "" (id 2) (at 100.33 87.63 0)
      (effects (font (size 1.27 1.27)) hide)
    )
    (property "Datasheet" "" (id 3) (at 100.33 87.63 0)
      (effects (font (size 1.27 1.27)) hide)
    )
    (pin "1" (uuid 1fb376bf-99fa-41c0-baac-d5c0b2ef0189))
    (pin "2" (uuid e2174854-8232-4afb-bb1b-db5890301aae))
    (pin "3" (uuid bf49c539-421d-4ea0-a349-ac0d0419ad3b))
  )

  (symbol (lib_id "solar-energy:Heater Element") (at 99.06 111.76 0) (mirror y) (unit 1)
    (in_bom yes) (on_board yes) (fields_autoplaced)
    (uuid 2fcf21e4-3737-4b7e-8d00-427de6ed1877)
    (property "Reference" "G?" (id 0) (at 99.06 105.41 0))
    (property "Value" "Heater Element" (id 1) (at 99.06 107.315 0))
    (property "Footprint" "" (id 2) (at 102.87 111.76 0)
      (effects (font (size 1.27 1.27)) hide)
    )
    (property "Datasheet" "" (id 3) (at 102.87 111.76 0)
      (effects (font (size 1.27 1.27)) hide)
    )
    (pin "1" (uuid 1e177189-9197-46eb-9aed-5a9f9c20ed55))
    (pin "2" (uuid eaddec67-2e52-4fa2-874f-7455f85e8875))
  )

  (symbol (lib_id "solar-energy:Battery") (at 100.33 72.39 0) (unit 1)
    (in_bom yes) (on_board yes) (fields_autoplaced)
    (uuid 35ca8bf8-cb46-48d9-a487-9d3463ea8623)
    (property "Reference" "B?" (id 0) (at 100.33 66.04 0))
    (property "Value" "Battery" (id 1) (at 100.33 67.945 0))
    (property "Footprint" "" (id 2) (at 92.71 72.39 0)
      (effects (font (size 1.27 1.27)) hide)
    )
    (property "Datasheet" "" (id 3) (at 92.71 72.39 0)
      (effects (font (size 1.27 1.27)) hide)
    )
    (pin "1" (uuid 3dc2bbf9-402d-4dcb-9b93-1525aeb8701b))
    (pin "2" (uuid 280f46b2-ae14-4161-ae41-2db14e1f99d5))
  )

  (symbol (lib_id "solar-energy:Temp Sensor") (at 99.06 121.92 0) (mirror y) (unit 1)
    (in_bom yes) (on_board yes) (fields_autoplaced)
    (uuid 6be82952-1215-40be-887e-612b90c816bb)
    (property "Reference" "G?" (id 0) (at 99.06 116.84 0))
    (property "Value" "Temp Sensor" (id 1) (at 99.06 118.745 0))
    (property "Footprint" "" (id 2) (at 102.87 123.19 0)
      (effects (font (size 1.27 1.27)) hide)
    )
    (property "Datasheet" "" (id 3) (at 102.87 123.19 0)
      (effects (font (size 1.27 1.27)) hide)
    )
    (pin "2" (uuid c2fe3e9c-8b51-48c2-a8f0-b5091723b366))
  )

  (symbol (lib_id "solar-energy:PV Panel") (at 100.33 57.15 0) (unit 1)
    (in_bom yes) (on_board yes)
    (uuid 6cf1c3be-5c90-4fb5-8d97-0361757bb641)
    (property "Reference" "PVP?" (id 0) (at 100.33 50.8 0))
    (property "Value" "PV Panel" (id 1) (at 100.33 52.705 0))
    (property "Footprint" "" (id 2) (at 92.71 57.15 0)
      (effects (font (size 1.27 1.27)) hide)
    )
    (property "Datasheet" "" (id 3) (at 92.71 57.15 0)
      (effects (font (size 1.27 1.27)) hide)
    )
    (pin "1" (uuid df8c9477-1a02-4142-83ac-ad1c24c85471))
    (pin "2" (uuid 2ee6ebf4-93b4-417c-a672-67ccd1ed7ee8))
  )

  (symbol (lib_id "solar-energy:DC{slash}DC Converter") (at 121.92 111.76 0) (mirror y) (unit 1)
    (in_bom yes) (on_board yes) (fields_autoplaced)
    (uuid 6d9f863c-625e-4253-8b98-91336accfe14)
    (property "Reference" "G?" (id 0) (at 121.92 105.41 0))
    (property "Value" "DC/DC Converter" (id 1) (at 121.92 107.315 0))
    (property "Footprint" "" (id 2) (at 125.73 111.76 0)
      (effects (font (size 1.27 1.27)) hide)
    )
    (property "Datasheet" "" (id 3) (at 125.73 111.76 0)
      (effects (font (size 1.27 1.27)) hide)
    )
    (pin "1" (uuid 2714ae8d-e016-4654-acb1-418d0858b804))
    (pin "2" (uuid 6c05f5ee-fe62-486c-9f6e-0ca59f75bf7f))
    (pin "3" (uuid 5fe67b74-0281-4be2-bfcf-72b111a98756))
    (pin "4" (uuid 03368b0b-be9f-4c5b-a3b6-04149e6a1a9f))
    (pin "5" (uuid 5aac95e4-aa4c-4ec5-bbfe-2c32b0711123))
  )

  (symbol (lib_id "solar-energy:Electrolyzer") (at 101.6 161.29 0) (unit 1)
    (in_bom yes) (on_board yes) (fields_autoplaced)
    (uuid 7d27135e-506c-4f5d-905a-35853b16832a)
    (property "Reference" "G?" (id 0) (at 94.615 154.305 0)
      (effects (font (size 1.27 1.27)) (justify left))
    )
    (property "Value" "Electrolyzer" (id 1) (at 94.615 156.21 0)
      (effects (font (size 1.27 1.27)) (justify left))
    )
    (property "Footprint" "" (id 2) (at 101.6 161.29 0)
      (effects (font (size 1.27 1.27)) hide)
    )
    (property "Datasheet" "" (id 3) (at 101.6 161.29 0)
      (effects (font (size 1.27 1.27)) hide)
    )
    (pin "1" (uuid 3919f783-1697-44c1-b5ac-c6476f14d79f))
    (pin "2" (uuid a7daa361-7ced-4db4-9bf6-af205e2296f0))
  )

  (symbol (lib_id "solar-energy:PV Panel") (at 100.33 40.64 0) (unit 1)
    (in_bom yes) (on_board yes)
    (uuid 904aa220-023c-432a-a0eb-1887a1905cbc)
    (property "Reference" "PVP?" (id 0) (at 100.33 34.29 0))
    (property "Value" "PV Panel" (id 1) (at 100.33 36.195 0))
    (property "Footprint" "" (id 2) (at 92.71 40.64 0)
      (effects (font (size 1.27 1.27)) hide)
    )
    (property "Datasheet" "" (id 3) (at 92.71 40.64 0)
      (effects (font (size 1.27 1.27)) hide)
    )
    (pin "1" (uuid 360495ee-ac3b-41f2-9d29-bdf904ce9ca2))
    (pin "2" (uuid 5c531887-ce2d-47cd-9c5e-c289b42d740a))
  )

  (symbol (lib_id "solar-energy:Controller") (at 121.92 227.33 0) (mirror y) (unit 1)
    (in_bom yes) (on_board yes) (fields_autoplaced)
    (uuid 9e39bc3d-1e4a-4992-af54-faf5b23f48eb)
    (property "Reference" "G?" (id 0) (at 121.92 219.71 0))
    (property "Value" "Controller" (id 1) (at 121.92 234.95 0))
    (property "Footprint" "" (id 2) (at 125.73 224.79 0)
      (effects (font (size 1.27 1.27)) hide)
    )
    (property "Datasheet" "" (id 3) (at 125.73 224.79 0)
      (effects (font (size 1.27 1.27)) hide)
    )
    (pin "1" (uuid 805a3ce3-75f9-4113-9cc7-dd3a142bee24))
  )

  (symbol (lib_id "solar-energy:Compressor") (at 100.33 176.53 0) (mirror y) (unit 1)
    (in_bom yes) (on_board yes)
    (uuid a204e435-895f-45d4-a5e8-7f93b1296cfc)
    (property "Reference" "G?" (id 0) (at 100.33 167.64 0))
    (property "Value" "Compressor" (id 1) (at 100.33 169.545 0))
    (property "Footprint" "" (id 2) (at 100.33 176.53 0)
      (effects (font (size 1.27 1.27)) hide)
    )
    (property "Datasheet" "" (id 3) (at 100.33 176.53 0)
      (effects (font (size 1.27 1.27)) hide)
    )
    (pin "1" (uuid 72549531-1ef5-4a55-9804-1797efa88dc2))
    (pin "2" (uuid c930d22c-3b8a-4662-9f65-c148e31eef14))
    (pin "3" (uuid bd8b14a4-7b12-457f-82fe-b0c95c407064))
    (pin "4" (uuid 6d75c1ce-a8fe-4894-aa45-7bd9bc0e439e))
    (pin "5" (uuid 8620cf3b-688e-4dc4-bad8-56f8dd88868f))
  )

  (symbol (lib_id "solar-energy:3PH DC{slash}AC Converter") (at 121.92 247.65 0) (unit 1)
    (in_bom yes) (on_board yes) (fields_autoplaced)
    (uuid ab3ffaec-1e89-4b94-bce5-6b55b301f171)
    (property "Reference" "G?" (id 0) (at 121.92 240.03 0))
    (property "Value" "3PH DC/AC Converter" (id 1) (at 121.92 255.27 0))
    (property "Footprint" "" (id 2) (at 118.11 245.11 0)
      (effects (font (size 1.27 1.27)) hide)
    )
    (property "Datasheet" "" (id 3) (at 118.11 245.11 0)
      (effects (font (size 1.27 1.27)) hide)
    )
    (pin "1" (uuid 397e1d9c-9db5-443f-b99a-ecfab46e6ffc))
    (pin "2" (uuid 051f37f9-ce13-4a46-b3ee-e8e604c11b51))
    (pin "3" (uuid bce37423-aa95-456c-9dc7-34cda30ea9b9))
    (pin "4" (uuid f50ef9ff-5655-46cc-84e8-2e0364615702))
    (pin "5" (uuid 7a76fc6a-80d3-4b39-a5d3-6f48c38dde3b))
    (pin "6" (uuid e4625aef-c0a1-4cbf-ba6d-ec75f737af98))
    (pin "7" (uuid cf583470-1acd-44a8-8379-c4bb0b3f08c8))
  )

  (symbol (lib_id "solar-energy:Heater Element") (at 99.06 139.7 0) (mirror y) (unit 1)
    (in_bom yes) (on_board yes) (fields_autoplaced)
    (uuid c049a768-1873-4d0e-a8f8-60334e818b7f)
    (property "Reference" "G?" (id 0) (at 99.06 133.35 0))
    (property "Value" "Heater Element" (id 1) (at 99.06 135.255 0))
    (property "Footprint" "" (id 2) (at 102.87 139.7 0)
      (effects (font (size 1.27 1.27)) hide)
    )
    (property "Datasheet" "" (id 3) (at 102.87 139.7 0)
      (effects (font (size 1.27 1.27)) hide)
    )
    (pin "1" (uuid 78bff0b4-b3f2-4b2f-a6b6-8fdb95e9782d))
    (pin "2" (uuid aeeeaa4c-d540-4870-8a07-d205ea3752f9))
  )

  (symbol (lib_id "solar-energy:DC{slash}DC Converter 2") (at 121.92 87.63 0) (unit 1)
    (in_bom yes) (on_board yes) (fields_autoplaced)
    (uuid d09c1be4-446b-438b-8104-27031be29531)
    (property "Reference" "G?" (id 0) (at 121.92 81.28 0))
    (property "Value" "DC/DC Converter 2" (id 1) (at 121.92 83.185 0))
    (property "Footprint" "" (id 2) (at 118.11 87.63 0)
      (effects (font (size 1.27 1.27)) hide)
    )
    (property "Datasheet" "" (id 3) (at 118.11 87.63 0)
      (effects (font (size 1.27 1.27)) hide)
    )
    (pin "1" (uuid e6978f03-4b63-453d-8d47-ce0fea05d422))
    (pin "2" (uuid 8f0f35ab-7d1d-4513-9806-6f7830d743dc))
    (pin "3" (uuid 555b5462-2005-450b-968c-5c3da197c492))
    (pin "4" (uuid a4e8ee9e-9bc8-435b-aafb-2d71df89491c))
    (pin "5" (uuid e87d624f-e18b-4de2-a6d6-3889bb8172cd))
  )

  (symbol (lib_id "solar-energy:BiDi DCDC Converter") (at 121.92 72.39 0) (unit 1)
    (in_bom yes) (on_board yes) (fields_autoplaced)
    (uuid d759129a-4bba-4dc2-b128-c577a86cbe69)
    (property "Reference" "G?" (id 0) (at 121.92 66.04 0))
    (property "Value" "BiDi DCDC Converter" (id 1) (at 121.92 67.945 0))
    (property "Footprint" "" (id 2) (at 118.11 72.39 0)
      (effects (font (size 1.27 1.27)) hide)
    )
    (property "Datasheet" "" (id 3) (at 118.11 72.39 0)
      (effects (font (size 1.27 1.27)) hide)
    )
    (pin "1" (uuid 1c93a3ed-d9ea-412f-879c-23944300e165))
    (pin "2" (uuid b04c13c3-70c7-435b-b8be-b656900b261f))
    (pin "3" (uuid fb7cce47-db43-4582-848b-b7c547e5ac70))
    (pin "4" (uuid 45dbdb06-0f14-4772-8b83-2c529a208c0f))
    (pin "5" (uuid 00fb9193-a245-4db9-99ca-8fc994a49f69))
  )

  (symbol (lib_id "solar-energy:DC{slash}DC Converter") (at 121.92 161.29 0) (mirror y) (unit 1)
    (in_bom yes) (on_board yes)
    (uuid e9c4eec7-33fb-494b-815c-1199fc7cd1f7)
    (property "Reference" "G?" (id 0) (at 121.92 154.94 0))
    (property "Value" "DC/DC Converter" (id 1) (at 121.92 156.845 0))
    (property "Footprint" "" (id 2) (at 125.73 161.29 0)
      (effects (font (size 1.27 1.27)) hide)
    )
    (property "Datasheet" "" (id 3) (at 125.73 161.29 0)
      (effects (font (size 1.27 1.27)) hide)
    )
    (pin "1" (uuid c07e8ff1-9ddf-4879-8e17-4443e23cbb54))
    (pin "2" (uuid 01274666-03d3-4974-bd98-12242e570d58))
    (pin "3" (uuid c8c396ce-c224-4050-a2af-bd146cd761b1))
    (pin "4" (uuid 8cbd10e6-0ab4-49e3-8711-75f6b2849efa))
    (pin "5" (uuid 775db8d4-9762-4530-839b-7f098c19784c))
  )

  (symbol (lib_id "solar-energy:Temp Sensor") (at 99.06 149.86 0) (mirror y) (unit 1)
    (in_bom yes) (on_board yes)
    (uuid f20545e3-bcd5-4db4-9a2a-c1ff56768fac)
    (property "Reference" "G?" (id 0) (at 99.06 144.78 0))
    (property "Value" "Temp Sensor" (id 1) (at 99.06 146.685 0))
    (property "Footprint" "" (id 2) (at 102.87 151.13 0)
      (effects (font (size 1.27 1.27)) hide)
    )
    (property "Datasheet" "" (id 3) (at 102.87 151.13 0)
      (effects (font (size 1.27 1.27)) hide)
    )
    (pin "2" (uuid 291018c9-6626-4e36-83ac-4821a6d29d10))
  )

  (sheet_instances
    (path "/" (page "1"))
  )

  (symbol_instances
    (path "/35ca8bf8-cb46-48d9-a487-9d3463ea8623"
      (reference "B?") (unit 1) (value "Battery") (footprint "")
    )
    (path "/03e1f1e4-e77c-401e-b61d-92a0355b045f"
      (reference "G?") (unit 1) (value "2-Way Energy Meter") (footprint "")
    )
    (path "/0a41dda0-ed1b-4341-9fbb-a9fab71252a8"
      (reference "G?") (unit 1) (value "MPPT Inverter") (footprint "")
    )
    (path "/0d7ee9ef-bf79-4fee-8223-3fdf9614ffc7"
      (reference "G?") (unit 1) (value "Compressor") (footprint "")
    )
    (path "/14963b12-bcd6-4646-a7c5-e0d834dc9701"
      (reference "G?") (unit 1) (value "MPPT Inverter") (footprint "")
    )
    (path "/1bd31677-9f47-411d-974e-596f8cc60ea6"
      (reference "G?") (unit 1) (value "DC/DC Converter") (footprint "")
    )
    (path "/2b45d6b2-f979-4134-941b-983e9ff86088"
      (reference "G?") (unit 1) (value "Fuel Cell") (footprint "")
    )
    (path "/2fcf21e4-3737-4b7e-8d00-427de6ed1877"
      (reference "G?") (unit 1) (value "Heater Element") (footprint "")
    )
    (path "/6be82952-1215-40be-887e-612b90c816bb"
      (reference "G?") (unit 1) (value "Temp Sensor") (footprint "")
    )
    (path "/6d9f863c-625e-4253-8b98-91336accfe14"
      (reference "G?") (unit 1) (value "DC/DC Converter") (footprint "")
    )
    (path "/7d27135e-506c-4f5d-905a-35853b16832a"
      (reference "G?") (unit 1) (value "Electrolyzer") (footprint "")
    )
    (path "/9e39bc3d-1e4a-4992-af54-faf5b23f48eb"
      (reference "G?") (unit 1) (value "Controller") (footprint "")
    )
    (path "/a204e435-895f-45d4-a5e8-7f93b1296cfc"
      (reference "G?") (unit 1) (value "Compressor") (footprint "")
    )
    (path "/ab3ffaec-1e89-4b94-bce5-6b55b301f171"
      (reference "G?") (unit 1) (value "3PH DC/AC Converter") (footprint "")
    )
    (path "/c049a768-1873-4d0e-a8f8-60334e818b7f"
      (reference "G?") (unit 1) (value "Heater Element") (footprint "")
    )
    (path "/d09c1be4-446b-438b-8104-27031be29531"
      (reference "G?") (unit 1) (value "DC/DC Converter 2") (footprint "")
    )
    (path "/d759129a-4bba-4dc2-b128-c577a86cbe69"
      (reference "G?") (unit 1) (value "BiDi DCDC Converter") (footprint "")
    )
    (path "/e9c4eec7-33fb-494b-815c-1199fc7cd1f7"
      (reference "G?") (unit 1) (value "DC/DC Converter") (footprint "")
    )
    (path "/f20545e3-bcd5-4db4-9a2a-c1ff56768fac"
      (reference "G?") (unit 1) (value "Temp Sensor") (footprint "")
    )
    (path "/6cf1c3be-5c90-4fb5-8d97-0361757bb641"
      (reference "PVP?") (unit 1) (value "PV Panel") (footprint "")
    )
    (path "/904aa220-023c-432a-a0eb-1887a1905cbc"
      (reference "PVP?") (unit 1) (value "PV Panel") (footprint "")
    )
  )
)
